04-AED-Transformación-de-datos-dplyr-|>
…
```r
library(tidyverse)
set.seed(123)

*tibble(
* x = runif(1000, -1, 1),
* y = runif(1000, -1, 1)
*) 
```
]
 
.panel2-solucion-auto[

```
## # A tibble: 1,000 × 2
##          x       y
##      <dbl>   <dbl>
##  1 -0.425  -0.453 
##  2  0.577   0.188 
##  3 -0.182  -0.680 
##  4  0.766   0.707 
##  5  0.881   0.695 
##  6 -0.909  -0.0442
##  7  0.0562  0.547 
##  8  0.785  -0.409 
##  9  0.103  -0.869 
## 10 -0.0868 -0.119 
## # … with 990 more rows
```
…
.panel2-solucion-auto[

```
## # A tibble: 1,000 × 6
##          x       y      r ri    convergencia   row
##      <dbl>   <dbl>  <dbl> <lgl>        <dbl> <int>
##  1 -0.425  -0.453  0.385  TRUE         1         1
##  2  0.577   0.188  0.368  TRUE         1         2
##  3 -0.182  -0.680  0.495  TRUE         1         3
##  4  0.766   0.707  1.09   FALSE        0.75      4
##  5  0.881   0.695  1.26   FALSE        0.6       5
##  6 -0.909  -0.0442 0.828  TRUE         0.667     6
##  7  0.0562  0.547  0.303  TRUE         0.714     7
##  8  0.785  -0.409  0.783  TRUE         0.75      8
##  9  0.103  -0.869  0.765  TRUE         0.778     9
## 10 -0.0868 -0.119  0.0217 TRUE         0.8      10
## # … with 990 more rows
```
…
## Otro tipo de ejercicios (1)
.panel1-otrotipo1-auto[

```r
library(tidyverse)
library(datos)

*vuelos
```
]
 
.panel2-otrotipo1-auto[

```
## # A tibble: 336,776 × 19
##     anio   mes   dia horario_s…¹ salid…² atras…³ horar…⁴ llega…⁵ atras…⁶ aerol…⁷
##    <int> <int> <int>       <int>   <int>   <dbl>   <int>   <int>   <dbl> <chr>  
##  1  2013     1     1         517     515       2     830     819      11 UA     
##  2  2013     1     1         533     529       4     850     830      20 UA     
##  3  2013     1     1         542     540       2     923     850      33 AA     
##  4  2013     1     1         544     545      -1    1004    1022     -18 B6     
##  5  2013     1     1         554     600      -6     812     837     -25 DL     
##  6  2013     1     1         554     558      -4     740     728      12 UA     
##  7  2013     1     1         555     600      -5     913     854      19 B6     
##  8  2013     1     1         557     600      -3     709     723     -14 EV     
##  9  2013     1     1         557     600      -3     838     846      -8 B6     
## 10  2013     1     1         558     600      -2     753     745       8 AA     
## # … with 336,766 more rows, 9 more variables: vuelo <int>, codigo_cola <chr>,
## #   origen <chr>, destino <chr>, tiempo_vuelo <dbl>, distancia <dbl>,
## #   hora <dbl>, minuto <dbl>, fecha_hora <dttm>, and abbreviated variable names
## #   ¹​horario_salida, ²​salida_programada, ³​atraso_salida, ⁴​horario_llegada,
## #   ⁵​llegada_programada, ⁶​atraso_llegada, ⁷​aerolinea
```
…
```r
library(tidyverse)
library(datos)

vuelos |>
* select(where(is.numeric))
```
]
 
.panel2-otrotipo1-auto[

```
## # A tibble: 336,776 × 14
##     anio   mes   dia horario_sal…¹ salid…² atras…³ horar…⁴ llega…⁵ atras…⁶ vuelo
##    <int> <int> <int>         <int>   <int>   <dbl>   <int>   <int>   <dbl> <int>
##  1  2013     1     1           517     515       2     830     819      11  1545
##  2  2013     1     1           533     529       4     850     830      20  1714
##  3  2013     1     1           542     540       2     923     850      33  1141
##  4  2013     1     1           544     545      -1    1004    1022     -18   725
##  5  2013     1     1           554     600      -6     812     837     -25   461
##  6  2013     1     1           554     558      -4     740     728      12  1696
##  7  2013     1     1           555     600      -5     913     854      19   507
##  8  2013     1     1           557     600      -3     709     723     -14  5708
##  9  2013     1     1           557     600      -3     838     846      -8    79
## 10  2013     1     1           558     600      -2     753     745       8   301
## # … with 336,766 more rows, 4 more variables: tiempo_vuelo <dbl>,
## #   distancia <dbl>, hora <dbl>, minuto <dbl>, and abbreviated variable names
## #   ¹​horario_salida, ²​salida_programada, ³​atraso_salida, ⁴​horario_llegada,
## #   ⁵​llegada_programada, ⁶​atraso_llegada
```
…
.panel2-otrotipo2-auto[

```
## [1] FALSE  TRUE FALSE
```

```
## [1] TRUE
```

```
## # A tibble: 336,776 × 19
##     anio   mes   dia horario_s…¹ salid…² atras…³ horar…⁴ llega…⁵ atras…⁶ aerol…⁷
##    <int> <int> <int>       <int>   <int>   <dbl>   <int>   <int>   <dbl> <chr>  
##  1  2013     1     1         517     515       2     830     819      11 UA     
##  2  2013     1     1         533     529       4     850     830      20 UA     
##  3  2013     1     1         542     540       2     923     850      33 AA     
##  4  2013     1     1         544     545      -1    1004    1022     -18 B6     
##  5  2013     1     1         554     600      -6     812     837     -25 DL     
##  6  2013     1     1         554     558      -4     740     728      12 UA     
##  7  2013     1     1         555     600      -5     913     854      19 B6     
##  8  2013     1     1         557     600      -3     709     723     -14 EV     
##  9  2013     1     1         557     600      -3     838     846      -8 B6     
## 10  2013     1     1         558     600      -2     753     745       8 AA     
## # … with 336,766 more rows, 9 more variables: vuelo <int>, codigo_cola <chr>,
## #   origen <chr>, destino <chr>, tiempo_vuelo <dbl>, distancia <dbl>,
## #   hora <dbl>, minuto <dbl>, fecha_hora <dttm>, and abbreviated variable names
## #   ¹​horario_salida, ²​salida_programada, ³​atraso_salida, ⁴​horario_llegada,
## #   ⁵​llegada_programada, ⁶​atraso_llegada, ⁷​aerolinea
```
…
.panel2-otrotipo2-auto[

```
## [1] FALSE  TRUE FALSE
```

```
## [1] TRUE
```

```
## # A tibble: 336,776 × 6
##    horario_salida atraso_salida horario_llegada atraso_llegada codigo_…¹ tiemp…²
##             <int>         <dbl>           <int>          <dbl> <chr>       <dbl>
##  1            517             2             830             11 N14228        227
##  2            533             4             850             20 N24211        227
##  3            542             2             923             33 N619AA        160
##  4            544            -1            1004            -18 N804JB        183
##  5            554            -6             812            -25 N668DN        116
##  6            554            -4             740             12 N39463        150
##  7            555            -5             913             19 N516JB        158
##  8            557            -3             709            -14 N829AS         53
##  9            557            -3             838             -8 N593JB        140
## 10            558            -2             753              8 N3ALAA        138
## # … with 336,766 more rows, and abbreviated variable names ¹​codigo_cola,
## #   ²​tiempo_vuelo
```
…
.panel2-otrotipo2-auto[

```
## [1] FALSE  TRUE FALSE
```

```
## [1] TRUE
```

```
## # A tibble: 9,430 × 6
##    horario_salida atraso_salida horario_llegada atraso_llegada codigo_…¹ tiemp…²
##             <int>         <dbl>           <int>          <dbl> <chr>       <dbl>
##  1           1525            -5            1934             NA N719MQ         NA
##  2           1528            29            2002             NA N17108         NA
##  3           1740            -5            2158             NA N739MQ         NA
##  4           1807            29            2251             NA N31412         NA
##  5           1939            59              29             NA N905XJ         NA
##  6           1952            22            2358             NA N11194         NA
##  7           2016            46              NA             NA N14168         NA
##  8             NA            NA              NA             NA N18120         NA
##  9             NA            NA              NA             NA N3EHAA         NA
## 10             NA            NA              NA             NA N3EVAA         NA
## # … with 9,420 more rows, and abbreviated variable names ¹​codigo_cola,
## #   ²​tiempo_vuelo
```
…
.panel2-otrotipo2-auto[

```
## [1] FALSE  TRUE FALSE
```

```
## [1] TRUE
```

```
## # A tibble: 2,512 × 6
##    horario_salida atraso_salida horario_llegada atraso_llegada codigo_…¹ tiemp…²
##             <int>         <dbl>           <int>          <dbl> <chr>       <dbl>
##  1             NA            NA              NA             NA <NA>           NA
##  2             NA            NA              NA             NA <NA>           NA
##  3             NA            NA              NA             NA <NA>           NA
##  4             NA            NA              NA             NA <NA>           NA
##  5             NA            NA              NA             NA <NA>           NA
##  6             NA            NA              NA             NA <NA>           NA
##  7             NA            NA              NA             NA <NA>           NA
##  8             NA            NA              NA             NA <NA>           NA
##  9             NA            NA              NA             NA <NA>           NA
## 10             NA            NA              NA             NA <NA>           NA
## # … with 2,502 more rows, and abbreviated variable names ¹​codigo_cola,
## #   ²​tiempo_vuelo
```
…
