06-Importación-de-datos-readr-readxl-httr-rvest-dbplyr
…
url <- "https://www.reclamos.cl/empresa/pontificia_universidad_catolica"

read_html(url) |>
* html_table()
```
]
 
.panel2-rvest-auto[

```
## [[1]]
## # A tibble: 27 × 3
##    Fecha    `Empresa y razón de reclamo`                                      ``
##    <chr>    <chr>                                                          <int>
##  1 28-11-22 Pontificia Universidad Católica - Cuenta correo Exalumnos        106
##  2 13-10-22 No Resuelto Pontificia Universidad Católica - Discriminación     159
##  3 06-01-21 Universidad Católica de Chile - No me llegó libro                303
##  4 15-08-19 No Resuelto universidad católica - falta de seguridad            681
##  5 07-06-19 salud                                                            409
##  6 06-06-19 No Resuelto Universidad católica de Chile - Irresponsabilidad…   779
##  7 08-02-18 No Resuelto Salud - No pagó de licencia                          575
##  8 06-01-18 puc - deuda                                                      780
##  9 30-03-17 No Resuelto Pontificia Universidad Católica de Chile - Falta …  1360
## 10 29-12-16 No Resuelto Pontificia Universidad Católica - Crédito UC Desp…  1019
## # … with 17 more rows
```
…
url <- "https://www.reclamos.cl/empresa/pontificia_universidad_catolica"

read_html(url) |>
  html_table() |>
* first()
```
]
 
.panel2-rvest-auto[

```
## # A tibble: 27 × 3
##    Fecha    `Empresa y razón de reclamo`                                      ``
##    <chr>    <chr>                                                          <int>
##  1 28-11-22 Pontificia Universidad Católica - Cuenta correo Exalumnos        106
##  2 13-10-22 No Resuelto Pontificia Universidad Católica - Discriminación     159
##  3 06-01-21 Universidad Católica de Chile - No me llegó libro                303
##  4 15-08-19 No Resuelto universidad católica - falta de seguridad            681
##  5 07-06-19 salud                                                            409
##  6 06-06-19 No Resuelto Universidad católica de Chile - Irresponsabilidad…   779
##  7 08-02-18 No Resuelto Salud - No pagó de licencia                          575
##  8 06-01-18 puc - deuda                                                      780
##  9 30-03-17 No Resuelto Pontificia Universidad Católica de Chile - Falta …  1360
## 10 29-12-16 No Resuelto Pontificia Universidad Católica - Crédito UC Desp…  1019
## # … with 17 more rows
```
…
url <- "https://www.reclamos.cl/empresa/pontificia_universidad_catolica"

read_html(url) |>
  html_table() |>
  first() |>
* set_names(c("fecha", "reclamo", "cantidad"))
```
]
 
.panel2-rvest-auto[

```
## # A tibble: 27 × 3
##    fecha    reclamo                                                      canti…¹
##    <chr>    <chr>                                                          <int>
##  1 28-11-22 Pontificia Universidad Católica - Cuenta correo Exalumnos        106
##  2 13-10-22 No Resuelto Pontificia Universidad Católica - Discriminación     159
##  3 06-01-21 Universidad Católica de Chile - No me llegó libro                303
##  4 15-08-19 No Resuelto universidad católica - falta de seguridad            681
##  5 07-06-19 salud                                                            409
##  6 06-06-19 No Resuelto Universidad católica de Chile - Irresponsabilid…     779
##  7 08-02-18 No Resuelto Salud - No pagó de licencia                          575
##  8 06-01-18 puc - deuda                                                      780
##  9 30-03-17 No Resuelto Pontificia Universidad Católica de Chile - Falt…    1360
## 10 29-12-16 No Resuelto Pontificia Universidad Católica - Crédito UC De…    1019
## # … with 17 more rows, and abbreviated variable name ¹​cantidad
```
…
url <- "https://www.reclamos.cl/empresa/pontificia_universidad_catolica"

read_html(url) |>
  html_table() |>
  first() |>
  set_names(c("fecha", "reclamo", "cantidad")) |>
* mutate(fecha = dmy(fecha))
```
]
 
.panel2-rvest-auto[

```
## # A tibble: 27 × 3
##    fecha      reclamo                                                    canti…¹
##    <date>     <chr>                                                        <int>
##  1 2022-11-28 Pontificia Universidad Católica - Cuenta correo Exalumnos      106
##  2 2022-10-13 No Resuelto Pontificia Universidad Católica - Discriminac…     159
##  3 2021-01-06 Universidad Católica de Chile - No me llegó libro              303
##  4 2019-08-15 No Resuelto universidad católica - falta de seguridad          681
##  5 2019-06-07 salud                                                          409
##  6 2019-06-06 No Resuelto Universidad católica de Chile - Irresponsabil…     779
##  7 2018-02-08 No Resuelto Salud - No pagó de licencia                        575
##  8 2018-01-06 puc - deuda                                                    780
##  9 2017-03-30 No Resuelto Pontificia Universidad Católica de Chile - Fa…    1360
## 10 2016-12-29 No Resuelto Pontificia Universidad Católica - Crédito UC …    1019
## # … with 17 more rows, and abbreviated variable name ¹​cantidad
```
…
url <- "https://www.reclamos.cl/empresa/pontificia_universidad_catolica"

read_html(url) |>
  html_table() |>
  first() |>
  set_names(c("fecha", "reclamo", "cantidad")) |>
  mutate(fecha = dmy(fecha)) |>
* arrange(fecha, cantidad)
```
]
 
.panel2-rvest-auto[

```
## # A tibble: 27 × 3
##    fecha      reclamo                                                    canti…¹
##    <date>     <chr>                                                        <int>
##  1 2013-04-12 Universidad Católica de Chile - Falta a la ética profesio…    4471
##  2 2013-05-24 Pontificia Universidad Católica - Sin Respuesta de Reclam…    2674
##  3 2013-07-11 Pontificia Universidad Católica - termino repentino de su…    1569
##  4 2013-10-16 pontificia Universidad Católica (salud) - no respetar con…    2044
##  5 2014-01-02 Pontificia Universidad Católica red salud uc - Discrimina…    2627
##  6 2014-04-07 Salud - Robo                                                  1075
##  7 2014-07-29 salud - demora resolución licencia                             983
##  8 2014-08-10 Pontificia Universidad Católica - Pérdida IRRESPONSABLE d…    1404
##  9 2014-09-16 Pontificia Universidad Católica de Chile - Falta de plata…    1301
## 10 2015-02-18 salud - mala atención                                         1620
## # … with 17 more rows, and abbreviated variable name ¹​cantidad
```
…
