07-Tipos-de-datos
…
## Creando Fechas desde componentes
.panel1-lubridate2-auto[

```r
library(dplyr)
library(datos)

*vuelos
```
]
 
.panel2-lubridate2-auto[

```
## # A tibble: 336,776 × 19
##     anio   mes   dia horario_salida salida_programada atraso_salida
##    <int> <int> <int>          <int>             <int>         <dbl>
##  1  2013     1     1            517               515             2
##  2  2013     1     1            533               529             4
##  3  2013     1     1            542               540             2
##  4  2013     1     1            544               545            -1
##  5  2013     1     1            554               600            -6
##  6  2013     1     1            554               558            -4
##  7  2013     1     1            555               600            -5
##  8  2013     1     1            557               600            -3
##  9  2013     1     1            557               600            -3
## 10  2013     1     1            558               600            -2
## # ℹ 336,766 more rows
## # ℹ 13 more variables: horario_llegada <int>, llegada_programada <int>,
## #   atraso_llegada <dbl>, aerolinea <chr>, vuelo <int>, codigo_cola <chr>,
## #   origen <chr>, destino <chr>, tiempo_vuelo <dbl>, distancia <dbl>,
## #   hora <dbl>, minuto <dbl>, fecha_hora <dttm>
```
…
```r
library(dplyr)
library(datos)

vuelos |>
* select(anio, mes, dia, hora, minuto)
```
]
 
.panel2-lubridate2-auto[

```
## # A tibble: 336,776 × 5
##     anio   mes   dia  hora minuto
##    <int> <int> <int> <dbl>  <dbl>
##  1  2013     1     1     5     15
##  2  2013     1     1     5     29
##  3  2013     1     1     5     40
##  4  2013     1     1     5     45
##  5  2013     1     1     6      0
##  6  2013     1     1     5     58
##  7  2013     1     1     6      0
##  8  2013     1     1     6      0
##  9  2013     1     1     6      0
## 10  2013     1     1     6      0
## # ℹ 336,766 more rows
```
…
vuelos |>
  select(anio, mes, dia, hora, minuto) |>
* mutate(
*   salida1 = make_date(anio, mes, dia),
*   .before = 1
* )
```
]
 
.panel2-lubridate2-auto[

```
## # A tibble: 336,776 × 6
##    salida1     anio   mes   dia  hora minuto
##    <date>     <int> <int> <int> <dbl>  <dbl>
##  1 2013-01-01  2013     1     1     5     15
##  2 2013-01-01  2013     1     1     5     29
##  3 2013-01-01  2013     1     1     5     40
##  4 2013-01-01  2013     1     1     5     45
##  5 2013-01-01  2013     1     1     6      0
##  6 2013-01-01  2013     1     1     5     58
##  7 2013-01-01  2013     1     1     6      0
##  8 2013-01-01  2013     1     1     6      0
##  9 2013-01-01  2013     1     1     6      0
## 10 2013-01-01  2013     1     1     6      0
## # ℹ 336,766 more rows
```
…
.panel2-lubridate2-auto[

```
## # A tibble: 336,776 × 7
##    salida1    salida2              anio   mes   dia  hora minuto
##    <date>     <dttm>              <int> <int> <int> <dbl>  <dbl>
##  1 2013-01-01 2013-01-01 05:15:00  2013     1     1     5     15
##  2 2013-01-01 2013-01-01 05:29:00  2013     1     1     5     29
##  3 2013-01-01 2013-01-01 05:40:00  2013     1     1     5     40
##  4 2013-01-01 2013-01-01 05:45:00  2013     1     1     5     45
##  5 2013-01-01 2013-01-01 06:00:00  2013     1     1     6      0
##  6 2013-01-01 2013-01-01 05:58:00  2013     1     1     5     58
##  7 2013-01-01 2013-01-01 06:00:00  2013     1     1     6      0
##  8 2013-01-01 2013-01-01 06:00:00  2013     1     1     6      0
##  9 2013-01-01 2013-01-01 06:00:00  2013     1     1     6      0
## 10 2013-01-01 2013-01-01 06:00:00  2013     1     1     6      0
## # ℹ 336,766 more rows
```
…
