09-Programación-Funcional
…
df <- tibble(
  nor = rnorm(100),
  exp = rexp(100),
  uni = runif(100)
)

*df
```
]
 
.panel2-motivacion-auto[

```
## # A tibble: 100 × 3
##        nor    exp   uni
##      <dbl>  <dbl> <dbl>
##  1 -0.560  1.80   0.964
##  2 -0.230  0.0301 0.775
##  3  1.56   1.30   0.209
##  4  0.0705 0.200  0.309
##  5  0.129  1.75   0.971
##  6  1.72   1.76   0.585
##  7  0.461  0.843  0.761
##  8 -1.27   0.349  0.373
##  9 -0.687  3.30   0.769
## 10 -0.446  0.402  0.538
## # ℹ 90 more rows
```
…
df |>
* mutate(
*   nor = (nor - min(nor))/
*     (max(nor) - min(nor))
* )
```
]
 
.panel2-motivacion-auto[

```
## # A tibble: 100 × 3
##      nor    exp   uni
##    <dbl>  <dbl> <dbl>
##  1 0.389 1.80   0.964
##  2 0.462 0.0301 0.775
##  3 0.860 1.30   0.209
##  4 0.529 0.200  0.309
##  5 0.542 1.75   0.971
##  6 0.895 1.76   0.585
##  7 0.616 0.843  0.761
##  8 0.232 0.349  0.373
##  9 0.361 3.30   0.769
## 10 0.414 0.402  0.538
## # ℹ 90 more rows
```
…
.panel2-motivacion-auto[

```
## # A tibble: 100 × 3
##      nor     exp   uni
##    <dbl>   <dbl> <dbl>
##  1 0.389 0.412   0.964
##  2 0.462 0.00589 0.775
##  3 0.860 0.298   0.209
##  4 0.529 0.0448  0.309
##  5 0.542 0.401   0.971
##  6 0.895 0.403   0.585
##  7 0.616 0.192   0.761
##  8 0.232 0.0790  0.373
##  9 0.361 0.755   0.769
## 10 0.414 0.0911  0.538
## # ℹ 90 more rows
```
…
.panel2-motivacion-auto[

```
## # A tibble: 100 × 3
##      nor     exp   uni
##    <dbl>   <dbl> <dbl>
##  1 0.389 0.412   0.966
##  2 0.462 0.00589 0.771
##  3 0.860 0.298   0.187
##  4 0.529 0.0448  0.290
##  5 0.542 0.401   0.974
##  6 0.895 0.403   0.575
##  7 0.616 0.192   0.757
##  8 0.232 0.0790  0.356
##  9 0.361 0.755   0.765
## 10 0.414 0.0911  0.526
## # ℹ 90 more rows
```
…
rescale01 <- function(x){
  (x - min(x))/(max(x) - min(x))
}

*df
```
]
 
.panel2-motivacion2-auto[

```
## # A tibble: 100 × 3
##        nor    exp   uni
##      <dbl>  <dbl> <dbl>
##  1 -0.560  1.80   0.964
##  2 -0.230  0.0301 0.775
##  3  1.56   1.30   0.209
##  4  0.0705 0.200  0.309
##  5  0.129  1.75   0.971
##  6  1.72   1.76   0.585
##  7  0.461  0.843  0.761
##  8 -1.27   0.349  0.373
##  9 -0.687  3.30   0.769
## 10 -0.446  0.402  0.538
## # ℹ 90 more rows
```
…
df |>
* mutate(
*   nor = rescale01(nor),
*   exp = rescale01(exp),
*   uni = rescale01(uni),
* )
```
]
 
.panel2-motivacion2-auto[

```
## # A tibble: 100 × 3
##      nor     exp   uni
##    <dbl>   <dbl> <dbl>
##  1 0.389 0.412   0.966
##  2 0.462 0.00589 0.771
##  3 0.860 0.298   0.187
##  4 0.529 0.0448  0.290
##  5 0.542 0.401   0.974
##  6 0.895 0.403   0.575
##  7 0.616 0.192   0.757
##  8 0.232 0.0790  0.356
##  9 0.361 0.755   0.765
## 10 0.414 0.0911  0.526
## # ℹ 90 more rows
```
…
df |>
  mutate(
    nor = rescale01(nor),
    exp = rescale01(exp),
    uni = rescale01(uni),
  )

*df
```
]
 
.panel2-motivacion2-auto[

```
## # A tibble: 100 × 3
##      nor     exp   uni
##    <dbl>   <dbl> <dbl>
##  1 0.389 0.412   0.966
##  2 0.462 0.00589 0.771
##  3 0.860 0.298   0.187
##  4 0.529 0.0448  0.290
##  5 0.542 0.401   0.974
##  6 0.895 0.403   0.575
##  7 0.616 0.192   0.757
##  8 0.232 0.0790  0.356
##  9 0.361 0.755   0.765
## 10 0.414 0.0911  0.526
## # ℹ 90 more rows
```

```
## # A tibble: 100 × 3
##        nor    exp   uni
##      <dbl>  <dbl> <dbl>
##  1 -0.560  1.80   0.964
##  2 -0.230  0.0301 0.775
##  3  1.56   1.30   0.209
##  4  0.0705 0.200  0.309
##  5  0.129  1.75   0.971
##  6  1.72   1.76   0.585
##  7  0.461  0.843  0.761
##  8 -1.27   0.349  0.373
##  9 -0.687  3.30   0.769
## 10 -0.446  0.402  0.538
## # ℹ 90 more rows
```
…
df |>
* mutate(across(is.numeric, rescale01))
```
]
 
.panel2-motivacion2-auto[

```
## # A tibble: 100 × 3
##      nor     exp   uni
##    <dbl>   <dbl> <dbl>
##  1 0.389 0.412   0.966
##  2 0.462 0.00589 0.771
##  3 0.860 0.298   0.187
##  4 0.529 0.0448  0.290
##  5 0.542 0.401   0.974
##  6 0.895 0.403   0.575
##  7 0.616 0.192   0.757
##  8 0.232 0.0790  0.356
##  9 0.361 0.755   0.765
## 10 0.414 0.0911  0.526
## # ℹ 90 more rows
```

```
## # A tibble: 100 × 3
##      nor     exp   uni
##    <dbl>   <dbl> <dbl>
##  1 0.389 0.412   0.966
##  2 0.462 0.00589 0.771
##  3 0.860 0.298   0.187
##  4 0.529 0.0448  0.290
##  5 0.542 0.401   0.974
##  6 0.895 0.403   0.575
##  7 0.616 0.192   0.757
##  8 0.232 0.0790  0.356
##  9 0.361 0.755   0.765
## 10 0.414 0.0911  0.526
## # ℹ 90 more rows
```
…
