Untitled
…
glimpse(datos)

Rows: 3,922
Columns: 4
$ paraderosubida           <chr> "ALCANTARA", "ALCANTARA", "ALCANTARA", "ALCAN…
$ mediahora                <dttm> 2015-01-01 05:30:00, 2015-01-01 06:00:00, 20…
$ subidas_laboral_promedio <dbl> 2.6, 13.2, 53.4, 184.8, 364.0, 546.2, 478.6, …
$ cluster                  <chr> "C", "C", "C", "C", "C", "C", "C", "C", "C", …

datos

# A tibble: 3,922 × 4
   paraderosubida mediahora           subidas_laboral_promedio cluster
   <chr>          <dttm>                                 <dbl> <chr>  
 1 ALCANTARA      2015-01-01 05:30:00                      2.6 C      
 2 ALCANTARA      2015-01-01 06:00:00                     13.2 C      
 3 ALCANTARA      2015-01-01 06:30:00                     53.4 C      
 4 ALCANTARA      2015-01-01 07:00:00                    185.  C      
 5 ALCANTARA      2015-01-01 07:30:00                    364   C      
 6 ALCANTARA      2015-01-01 08:00:00                    546.  C      
 7 ALCANTARA      2015-01-01 08:30:00                    479.  C      
 8 ALCANTARA      2015-01-01 09:00:00                    359   C      
 9 ALCANTARA      2015-01-01 09:30:00                    275.  C      
10 ALCANTARA      2015-01-01 10:00:00                    230.  C      
# … with 3,912 more rows
…
